<?php

namespace App\Http\Controllers;

use App\Debt;
use App\Contract;
use App\Group;
use App\Correction;
use App\Role;
use App\Permission;
use App\User;
use App\Client;
use App\Category;
use App\Element;
use App\Extras;
use App\Charge;
use App\MySQLClientRepository;
use App\LevelService;
use App\Http\Controllers\Main;
use App\SubscriptionEvent;
use DB;
use Auth;
use Request;
use Validator;
use Mail;
use Conekta;
use Conekta_Customer;
use Conekta_Charge;
use Conekta_Event;
use Conekta_Plan;

class ContractsController extends Main {
    /**
     * __construct
     * Se le indica que la funcion "create" no debe usar AUTH, por medio del controlador MAIN
     */
    public function __construct() {

        parent::__construct(['create']);

    }

    /**
     * index
     * Devuelve todas los contrato después de haber aplicado un filtros.
     * Los filtros se obtienen de la variable GET, pormedio del trait de Laravel REQUEST
     *
     * @Illuminate\Foundation\Http\FormRequest
     * 
     * @return response NULL|Error(400)
     */
    public function index() {

        try {

            $contracts = DB::table('contracts');

            foreach(Request::query() as $name => $value) {

                switch($name) {
                    case 'referred_by':

                        $contracts = $contracts->whereIn(
                            'id_clients',
                            array_map(
                                function($element) { return $element->id_clients; },
                                DB::table('clients')
                                    ->where($name, $value)
                                    ->select('id_clients')
                                    ->get()
                            )
                        );

                    break;

                    default:
                        $contracts = $contracts->where($name, $value);
                    break;
                }

            }

            $contracts = $contracts->get();

        } catch(\Exception $e) {

            return Main::response(false, null, null, 400);

        }

        foreach($contracts as &$contract) {

            $contract = $this->resolveRelations($contract);

        }

        return Main::response(true, null, $contracts);

    }

    /**
     * passwordNotification
     * Se le envía su password al cliente(\App\Client), identificandolo por medio del ID ($idclient)
     * 
     * @Mail
     * @App\Client
     * 
     * @param int    $idclient  ID del Cliente
     * @param string $password  Password
     * @return void
     */
    public function passwordNotification($idclient, $password) {

        $client = Client::find($idclient);
        if(!is_null($client)){
            Mail::send('email.passwordNotification', array(
                'name'     => $client->name,
                'username' => $client->email,
                'password' => $password
            ),
            function($message) use ($client){
                $message->to($client->email, $client->name)->subject('Bienvenido a Aguagente');
            });
        }
    }

    /**
     * create
     * Crea un cliente con todas su dependencias:
     *  - Cliente
     *      - Dentro de base de datos
     *      - Dentro de CONKECTA
     *  - Usuario
     *  - Rol de usuario
     *  - Contrato
     *      - Categoria
     *      - Extras
     * 
     * @todo NOTE:
     *     creat-contract has to be enabled just for sellers.
     *     validate max chars
     *     drop name and email from clients model
     *     validate sent elements
     * 
     * @Auth
     * @Illuminate\Foundation\Http\FormRequest
     * @Conekta
     * @Conekta_Customer
     * @App\Client
     * @App\Group
     * @App\User
     * @App\Contract
     * @App\Element
     * @App\Extras
     * @App\Category
     * 
     * @return response null|Bad Request|Frobbiden|null(500)
     */
    public function create() {

        try {

            $user = Auth::user();

            $input = Request::all();

            $rules = [
                'client.name'              => 'required',
                'client.email'             => 'required|email',
                'client.address'           => 'required',
                'client.phone'             => 'required|string|min:8|max:20',
                'client.between_streets'   => 'required',
                'client.colony'            => 'required',
                'client.postal_code'       => 'required|digits:5',
                'client.state'             => 'required|string',
                'client.county'            => 'required|string',
                'elements'                 => 'array',
                'photos'                   => 'array',
                'proof_of_address'         => 'image|max:10240',
                'id'                       => 'image|max:10240',
                'id_reverse'               => 'image|max:10240',
                'profile'                  => 'image|max:10240',
                'monthly_installments'     => 'in:1,3,6,9,12',
                'credit_card'              => 'string'
            ];

            if(is_null($user)) {

                $rules['seller'] = 'required|exists:clients,id_clients';

            }

            if(isset($input['elements'])) {

                foreach(range(0, count($input['elements']) - 1) as $index) {

                    $rules["elements.$index"] = 'integer';

                }

            }

            if(isset($input['photos'])) {

                foreach(range(0, count($input['photos']) - 1) as $index) {

                    $rules["photos.$index"] = 'image|max:10240';

                }

            }
            $validator = Validator::make($input, $rules);

            if($validator->fails()) {

                return Main::response(false, 'Bad Request', ['errors' => $validator->errors()], 400);

            }

            DB::beginTransaction();

            $referrer = isset($input['seller']) ?
                 Client::find($input['seller']) :
                 Client::where('id_users', Auth::user()->id)->first();
            if(!$referrer)
                return Main::response(false, 'Forbidden', ['errors' => ['referrer' => ['Is not a client']]], 403);

            $referrerGroup = Group::find($referrer->id_groups);
            $signIntoGroup = Group::find($referrerGroup->sign_into);

            $password = str_random(10);

            if($user = User::where('email', '=', $input['client']['email'])->first()) {

                if($user->hasRole('Client')) {

                    return Main::response(false, 'Forbidden', 'User is already a client', 503);

                } else {

                    $user->attachRole(Role::where('name', '=', 'Client')->first());

                }

            } else {

                $user = new User();
                $user->name = $input['client']['name'];
                $user->email = $input['client']['email'];
                $user->password = bcrypt($password);
                $user->save();
                $user->attachRole(Role::where('name', '=', 'Client')->first());

            }

            $client = new Client;
            $client->id_users           = $user->id;
            $client->id_groups          = $signIntoGroup->id_groups;
            $client->name               = $input['client']['name'];
            $client->email              = $input['client']['email'];
            $client->address            = $input['client']['address'];
            $client->phone              = $input['client']['phone'];
            $client->between_streets    = $input['client']['between_streets'];
            $client->colony             = $input['client']['colony'];
            $client->postal_code        = $input['client']['postal_code'];
            $client->state              = $input['client']['state'];
            $client->county             = $input['client']['county'];
            $client->signed_in_id       = $signIntoGroup->id_groups;
            $client->signed_in          = $signIntoGroup->name;
            $client->deposit            = $signIntoGroup->deposit;
            $client->installation_fee   = $signIntoGroup->installation_fee;
            $client->monthly_fee        = $signIntoGroup->monthly_fee;
            $client->social_responsability = (boolean) @ $input['responsabilidad'];
            $client->referred_by        = $referrer->id_clients;
            $client->status             = 'standby';
            $client->monthly_installments = isset($input['monthly_installments']) ?
                                                  $input['monthly_installments'] : 1;
            $client->save();

            if($client->conekta_token === null) {

                Conekta::setApiKey(env('CONEKTA_API_KEY', 'key_w6J8jsPrcy6byu2rX6WSYg'));
                Conekta::setLocale('es');

                $customer = Conekta_Customer::create(array(
                    'name'  => $client->name,
                    'email' => $client->email,
                    'phone' => $client->phone
                ));

                if(isset($input['credit_card'])) {
                    $customer->createCard(
                        array(
                            'token' => $input['credit_card']
                        )
                    );
                }

                if($customer) {

                    $client->conekta_token = $customer->id;
                    $client->save();

                }

            }

            $contract = new Contract;
            $contract->id_clients = $client->id_clients;
            $contract->save();

            foreach(isset($input['elements']) ? $input['elements'] : array() as $id_elements) {

                $element = Element::find($id_elements);

                if($element) {

                    $category = Category::find($element->id_categories);

                    $extras = new Extras();
                    $extras->id_contracts = $contract->id_contracts;
                    $extras->category_name = $category->name;
                    $extras->element_name = $element->name;
                    $extras->price = $element->price;
                    $extras->save();

                }

            }

            $location = realpath('documents/contracts') . "/$referrer->id_clients/$contract->id_contracts";

            $i = 1;

            foreach(isset($input['photos']) ? $input['photos'] : array() as $name => $file) {

                $file->move(
                    "$location/photos",
                    $file->getClientOriginalName()
                );

            }

            if(isset($input['id']))                 $input['id']->move($location, 'id' . '.' . $input['id']->getClientOriginalExtension());
            if(isset($input['id_reverse']))         $input['id_reverse']->move($location, 'id_reverse' . '.' .$input['id_reverse']->getClientOriginalExtension());
            if(isset($input['proof_of_address']))   $input['proof_of_address']->move($location, 'proof_of_address' . '.' . $input['proof_of_address']->getClientOriginalExtension());
            if(isset($input['profile']))            $input['profile']->move($location, 'profile' . '.' . $input['profile']->getClientOriginalExtension());

            $this->passwordNotification($client->id_clients, $password);

            DB::commit();

            return Main::response(true, null, $this->resolveRelations($contract), 201);

        } catch(\Exception $e) {

            DB::rollback();

            return Main::response(false, $e->getMessage(), null, 500);

        }

    }

    /**
     * show
     * Muestra la información de un contrato(|App\Contract) por medio de su ID($id)
     * 
     * @App\Contract
     * 
     * @param int       $id    ID del contrato
     * @return response         null|null(404)
     */
    public function show($id) {

        if($contract = Contract::find($id)) {

            return Main::response(true, null, $this->resolveRelations($contract));

        } else {

            return Main::response(false, null, null, 404);

        }

    }

    /**
     * update
     * Guarda las modificaciones realizadas a un contrato y todas sus dependencias (\App\Contract) por medio del ID.
     * Además genera un registro de corrección(\App\Correction) para poder comparar con información anterior (versiones de información)
     * 
     * @Auth
     * @Illuminate\Foundation\Http\FormRequest
     * @Conekta
     * @Conekta_Customer
     * @App\Correction
     * @App\Client
     * @App\Group
     * @App\User
     * @App\Contract
     * @App\Element
     * @App\Extras
     * @App\Category
     * 
     * @return response null|Bad Request|null(404)|null(500)
     */
    public function update($id) {

        if($contract = Contract::find($id)) {

            try {

                $client = Client::find($contract->id_clients);

                if($input = Request::all()) {

                    $rules = [
                        'client.name'              => '',
                        'client.address'           => '',
                        'client.phone'             => 'string|min:8|max:20',
                        'client.between_streets'   => '',
                        'client.colony'            => '',
                        'client.postal_code'       => 'digits:5',
                        'client.state'             => '',
                        'client.county'            => '',
                        'client.monthly_installments' => 'in:1,3,6,9,12',
                        'elements'                 => 'array',
                        'photos'                   => 'array',
                        'proof_of_address'         => 'image|max:10240',
                        'id'                       => 'image|max:10240',
                        'id_reverse'               => 'image|max:10240',
                        'profile'                  => 'image|max:10240'
                    ];

                    if(isset($input['elements'])) {

                        foreach(range(0, count($input['elements']) - 1) as $index) {

                            $rules["elements.$index"] = 'exists:categories_elements,id_categories_elements';

                        }

                    }

                    if(isset($input['photos'])) {

                        foreach(range(0, count($input['photos']) - 1) as $index) {

                            $rules["photos.$index"] = 'image|max:10240';

                        }

                    }

                    $validator = Validator::make($input, $rules);

                    if($validator->fails()) {

                        return Main::response(false, 'Bad Request', ['errors' => $validator->errors()], 400);

                    }

                    $location = realpath('documents/contracts') . "/$client->referred_by/$contract->id_contracts";

                    if(isset($input['photos'])) {

                        foreach(glob("$location/photos/*") as $file) {

                            unlink($file);

                        }

                        $i = 1;

                        foreach($input['photos'] as $file) {

                            $file->move(
                                "$location/photos",
                                $file->getClientOriginalName()
                            );

                        }

                    }

                    if(isset($input['client']['name']))               $client->name               = $input['client']['name'];
                    if(isset($input['client']['address']))            $client->address            = $input['client']['address'];
                    if(isset($input['client']['phone']))              $client->phone              = $input['client']['phone'];
                    if(isset($input['client']['between_streets']))    $client->between_streets    = $input['client']['between_streets'];
                    if(isset($input['client']['colony']))             $client->colony             = $input['client']['colony'];
                    if(isset($input['client']['postal_code']))        $client->postal_code        = $input['client']['postal_code'];
                    if(isset($input['client']['state']))              $client->state              = $input['client']['state'];
                    if(isset($input['client']['county']))             $client->county             = $input['client']['county'];
                    if(isset($input['client']['monthly_installments']))  $client->monthly_installments  = $input['client']['monthly_installments'];
                    if(isset($input['client']['social_responsability'])) $client->social_responsability = $input['responsabilidad'];

                    if(isset($input['id'])) {
                        foreach(glob("$location/id.*") as $file)
                            unlink($file);
                        $input['id']->move($location, 'id' . '.' . $input['id']->getClientOriginalExtension());
                    }

                    if(isset($input['id_reverse'])) {
                        foreach(glob("$location/id_reverse.*") as $file)
                            unlink($file);
                        $input['id_reverse']->move($location, 'id_reverse' . '.' .$input['id_reverse']->getClientOriginalExtension());
                    }

                    if(isset($input['proof_of_address'])) {
                        foreach(glob("$location/proof_of_address.*") as $file)
                            unlink($file);
                        $input['proof_of_address']->move($location, 'proof_of_address' . '.' . $input['proof_of_address']->getClientOriginalExtension());
                    }

                    if(isset($input['profile'])) {
                        foreach(glob("$location/profile.*") as $file)
                            unlink($file);
                        $input['profile']->move($location, 'profile' . '.' . $input['profile']->getClientOriginalExtension());
                    }

                    if ($client->status == 'invalid')
                        $client->status = 'standby';

                    $client->save();

                    $correction = new Correction;
                    $correction->id_clients = $client->id_clients;
                    $correction->save();

                    foreach(Extras::where('id_contracts', '=', $contract->id_contracts)->get() as $extra) {

                        $extra->delete();

                    }

                    if(isset($input['elements'])) {

                        foreach($input['elements'] as $id_elements) {

                            $element = Element::find($id_elements);

                            if($element) {

                                $category = Category::find($element->id_categories);

                                $extras = new Extras();
                                $extras->id_contracts = $contract->id_contracts;
                                $extras->category_name = $category->name;
                                $extras->element_name = $element->name;
                                $extras->price = $element->price;
                                $extras->save();

                            }

                        }

                    }

                    return Main::response(true, null, $this->resolveRelations($contract));

                } else {

                    return Main::response(true, 'Ok', null, 200);

                }

            } catch(\Exception $e) {

                return Main::response(false, $e->getMessage(), null, 400);

            }

        } else {

            return Main::response(false, null, null, 404);

        }

    }

    
    /**
     * resolveRelations
     * Devuelve todos el contrato con todas sus dependencias cargadas:
     *  - Cliente
     *  - Grupo
     *  - Extras
     *  - Documentos y fotos.
     *
     * @param  Contract $contract Objeto Eloquent Contract
     * @return Contract $contract Objeto Eloquent Contract
     */
    private function resolveRelations($contract) {

        $client = DB::table('clients')
            ->where('id_clients', $contract->id_clients)
            ->first();

        $group = DB::table('groups')
            ->where('id_groups', $client->id_groups)
            ->first();

        $group->sign_into = Group::find($group->sign_into);

        $elements = DB::table('contracts_extras')
            ->where('id_contracts', $contract->id_contracts)
            ->get();

        $location = "documents/contracts/$client->referred_by/$contract->id_contracts";
        $photos = glob("$location/photos/*");
        foreach($photos as &$photo)
            $photo = Request::root() . "/" . $photo;

        $documents = array_values(array_filter(glob("$location/*"), 'is_file'));
        foreach($documents as &$document)
            $document = Request::root() . "/" . $document;

        $client->group = $group;
        $contract->client = $client;
        $contract->elements = $elements;
        $contract->photos = $photos;
        $contract->documents = $documents;

        return $contract;

    }

    /**
     * on
     * IPN listener para los WebHooks de Conekta:
     *  - charge.created
     *  - charge.paid
     *  - subscription.created
     *  - subscription.paid
     *  - subscription.paused
     *  - subscription.resumed
     *  - subscription.payment_failed
     *  - subscription.canceled
     * 
     * @Coneckta
     * @Conekta_plan
     * @Conekta_Charge
     * @Illuminate\Foundation\Http\FormRequest
     * @App\Client
     * @App\Charge
     * @App\SubscriptionEvent
     * @App\Debt
     * @App\LevelService
     * @App\MySQLClientRepository
     * 
     * @return void
     */
    public function on() {

        $input = Request::all();

        if(isset($input['type'])) {

            switch($input['type']) {

                case 'charge.created':

                    if(!($charge = Charge::find($input['data']['object']['id']))) {

                        Conekta::setApiKey(env('CONEKTA_API_KEY', 'key_w6J8jsPrcy6byu2rX6WSYg'));
                        Conekta::setLocale('es');

                        $client = Client::where('conekta_token', '=', $input['data']['object']['customer_id'])->first();

                        if($client) {

                            $charge = new Charge;
                            $charge->id_charges     = $input['data']['object']['id'];
                            $charge->customer_id    = $input['data']['object']['customer_id'];
                            $charge->description    = $input['data']['object']['description'];
                            $charge->amount         = $input['data']['object']['amount'];
                            $charge->fee            = $input['data']['object']['fee'];
                            $charge->id_clients     = $client->id_clients;
                            $charge->failure_message = Conekta_Charge::find($input['data']['object']['id'])->failure_message;
                            $charge->save();

                        }

                    }

                break;

                case 'charge.paid':

                    if($charge = Charge::find($input['data']['object']['id'])) {

                        $charge->paid_at = date('Y-m-d H:i:s', $input['data']['object']['paid_at']);
                        $charge->save();

                    } else {

                        $client = Client::where('conekta_token', '=', $input['data']['object']['customer_id'])->first();

                        $charge = new Charge;
                        $charge->id_charges     = $input['data']['object']['id'];
                        $charge->customer_id    = $input['data']['object']['customer_id'];
                        $charge->description    = $input['data']['object']['description'];
                        $charge->amount         = $input['data']['object']['amount'];
                        $charge->fee            = $input['data']['object']['fee'];
                        $charge->paid_at        = date('Y-m-d H:i:s', $input['data']['object']['paid_at']);
                        $charge->id_clients     = $client->id_clients;
                        $charge->save();

                    }

                break;

                case 'subscription.created':
                case 'subscription.paid':
                case 'subscription.paused':
                case 'subscription.resumed':
                case 'subscription.payment_failed':
                case 'subscription.canceled':

                    if(!($event = SubscriptionEvent::find($input['id']))) {

                        $client = Client::where('conekta_token', '=', $input['data']['object']['customer_id'])->first();

                        if(($client->subscription_status == null) || (new \DateTime($client->subscription_status_date) <= new \DateTime(date('Y-m-d H:i:s', $input['created_at'])))) {

                            $client->subscription_status = $input['data']['object']['status'];
                            $client->subscription_status_date = date('Y-m-d H:i:s', $input['created_at']);
                            $client->save();

                        }

                        $event = new SubscriptionEvent;
                        $event->id_subscription_events = $input['id'];
                        $event->customer_id = $input['data']['object']['customer_id'];
                        $event->type = $input['type'];
                        $event->subscription_status = $input['data']['object']['status'];
                        $event->date = date('Y-m-d H:i:s', $input['created_at']);
                        $event->id_clients = $client->id_clients;
                        $event->save();

                        if($input['type'] == 'subscription.canceled' && $client->status != 'canceled') {

                            Conekta::setApiKey(env('CONEKTA_API_KEY', 'key_w6J8jsPrcy6byu2rX6WSYg'));
                            Conekta::setLocale('es');

                            $plan = Conekta_Plan::find($input['data']['object']['plan_id']);

                            $accumulated = Debt::where('id_clients', '=', $client->id_clients)
                            ->whereNull('id_charges')
                            ->sum('amount');

                            $accumulated += $plan->amount;

                            $debt = new Debt();
                            $debt->id_clients = $client->id_clients;
                            $debt->amount = $plan->amount;
                            $debt->collection_fees = 10000;
                            $debt->moratory_fees = (integer) $accumulated * .04;
                            $debt->next_try_to_charge = date('Y-m-d', strtotime('+6 days'));
                            $debt->save();

                            $client->debt += $debt->amount + $debt->collection_fees + $debt->moratory_fees;

                        }

                        $levelService = new LevelService(new MySQLClientRepository());
                        $levelService->setLevels($client);

                    }

                break;

            }

        }

    }

}

